{
	"Header Options": [
		{
			"name":"showLogo",
			"type":"boolean",
			"default":"true",
			"label":"Show Header Logo",
			"description":""
		},
		{
			"name":"logoSrc",
			"type":"image",
			"default":"",
			"label":"Header Logo",
			"description":"Size - 100x100"
		},
		{
			"name":"siteNameOne",
			"type":"text",
			"default":"",
			"label":"Site Name Line One",
			"description":""
		},
		{
			"name":"siteNameTwo",
			"type":"text",
			"default":"",
			"label":"Site Name Line Two",
			"description":""
		},
		{
			"name":"siteTagline",
			"type":"text",
			"default":"",
			"label":"Site Tagline",
			"description":""
		}
	],
	"Channel Bar Options": [
		{
			"name":"showHomeChannel",
			"type":"dropdown",
			"default":"Yes;No",
			"label":"Show Home in Channel Bar",
			"description":""
		},
		{
			"name":"showCalendarChannel",
			"type":"dropdown",
			"default":"Yes;No",
			"label":"Show Calendar in Channel Bar",
			"description":""
		},
		{
			"name":"sectionMax",
			"type":"number",
			"default":"15",
			"label":"Set Section Max",
			"description":""
		},
		{
			"name":"hideSingleSectionDD",
			"type":"dropdown",
			"default":"Yes;No",
			"label":"Hide Single Section Dropdown",
			"description":""
		}
	],
	"Content Options": [
		{
			"name":"transitionSpeed",
			"type":"number",
			"default":"3",
			"label":"MMG Transition Speed",
			"description":""
		},
		{
			"name":"transitionDelay",
			"type":"number",
			"default":"8",
			"label":"MMG Transition Delay",
			"description":""
		},
		{
			"name":"streamingVideoSwitch",
			"type":"boolean",
			"default":"false",
			"label":"Show Streaming Video",
			"description":""
		},
		{
			"name":"streamingVideoTitle",
			"type":"text",
			"default":"Title",
			"label":"Video Title",
			"description":""
		},
		{
			"name":"streamingVideoDescription",
			"type":"text",
			"default":"Description",
			"label":"Video Description",
			"description":""
		},
		{
			"name":"streamingVideoLink",
			"type":"text",
			"default":"www.youtube.com",
			"label":"Video Link URL",
			"description":""
		},
		{
			"name":"streamingVideoLinkText",
			"type":"text",
			"default":"Video Link",
			"label":"Video Link Text",
			"description":""
		},
		{
			"name":"streamingVideoVendor",
			"type":"dropdown",
			"default":"YouTube;Vimeo",
			"label":"Video Vendor",
			"description":""
		},
		{
			"name":"streamingVideoID",
			"type":"text",
			"default":"QkefIAVRQpI",
			"label":"Video ID",
			"description":""
		},
		{
			"name":"streamingVideoMobileImage",
			"type":"image",
			"default":"",
			"label":"Mobile Background Image",
			"description":""
		},
		{
			"name":"showContentBackground",
			"type":"boolean",
			"default":"true",
			"label":"Show Content Background",
			"description":""
		},
		{
			"name":"contentBackground",
			"type":"image",
			"default":"",
			"label":"Content Background",
			"description":""
		}
	],
	"Global Icons": [
		{
			"name":"numOfIcons",
			"type":"dropdown",
			"default":"10;9;8;7;6;5;4;3;2;1;0",
			"label":"Number of Icons",
			"description":""
		},
		{
			"name":"Icon1Image",
			"type":"icon",
			"default":"Student Program/19.png",
			"label":"Icon 1 Image",
			"description":""
		},
		{
			"name":"Icon1ShowText",
			"type":"boolean",
			"default":"true",
			"label":"Show Icon 1 Text",
			"description":"Text is still required for accessibility purposes"
		},
		{
			"name":"Icon1Text",
			"type":"text",
			"default":"Icon 1",
			"label":"Icon 1 Text",
			"description":""
		},
		{
			"name":"Icon1Link",
			"type":"text",
			"default":"#",
			"label":"Icon 1 URL",
			"description":""
		},
		{
			"name":"Icon1Target",
			"type":"dropdown",
			"default":"_self;_blank",
			"label":"Icon 1 Target",
			"description":"_self = Same Window / _blank = New Window"
		},
		{
			"name":"Icon2Image",
			"type":"icon",
			"default":"Student Program/19.png",
			"label":"Icon 2 Image",
			"description":""
		},
		{
			"name":"Icon2ShowText",
			"type":"boolean",
			"default":"true",
			"label":"Show Icon 2 Text",
			"description":"Text is still required for accessibility purposes"
		},
		{
			"name":"Icon2Text",
			"type":"text",
			"default":"Icon 2",
			"label":"Icon 2 Text",
			"description":""
		},
		{
			"name":"Icon2Link",
			"type":"text",
			"default":"#",
			"label":"Icon 2 URL",
			"description":""
		},
		{
			"name":"Icon2Target",
			"type":"dropdown",
			"default":"_self;_blank",
			"label":"Icon 2 Target",
			"description":"_self = Same Window / _blank = New Window"
		},
		{
			"name":"Icon3Image",
			"type":"icon",
			"default":"Student Program/19.png",
			"label":"Icon 3 Image",
			"description":""
		},
		{
			"name":"Icon3ShowText",
			"type":"boolean",
			"default":"true",
			"label":"Show Icon 3 Text",
			"description":"Text is still required for accessibility purposes"
		},
		{
			"name":"Icon3Text",
			"type":"text",
			"default":"Icon 3",
			"label":"Icon 3 Text",
			"description":""
		},
		{
			"name":"Icon3Link",
			"type":"text",
			"default":"#",
			"label":"Icon 3 URL",
			"description":""
		},
		{
			"name":"Icon3Target",
			"type":"dropdown",
			"default":"_self;_blank",
			"label":"Icon 3 Target",
			"description":"_self = Same Window / _blank = New Window"
		},
		{
			"name":"Icon4Image",
			"type":"icon",
			"default":"Student Program/19.png",
			"label":"Icon 4 Image",
			"description":""
		},
		{
			"name":"Icon4ShowText",
			"type":"boolean",
			"default":"true",
			"label":"Show Icon 4 Text",
			"description":"Text is still required for accessibility purposes"
		},
		{
			"name":"Icon4Text",
			"type":"text",
			"default":"Icon 4",
			"label":"Icon 4 Text",
			"description":""
		},
		{
			"name":"Icon4Link",
			"type":"text",
			"default":"#",
			"label":"Icon 4 URL",
			"description":""
		},
		{
			"name":"Icon4Target",
			"type":"dropdown",
			"default":"_self;_blank",
			"label":"Icon 4 Target",
			"description":"_self = Same Window / _blank = New Window"
		},
		{
			"name":"Icon5Image",
			"type":"icon",
			"default":"Student Program/19.png",
			"label":"Icon 5 Image",
			"description":""
		},
		{
			"name":"Icon5ShowText",
			"type":"boolean",
			"default":"true",
			"label":"Show Icon 5 Text",
			"description":"Text is still required for accessibility purposes"
		},
		{
			"name":"Icon5Text",
			"type":"text",
			"default":"Icon 5",
			"label":"Icon 5 Text",
			"description":""
		},
		{
			"name":"Icon5Link",
			"type":"text",
			"default":"#",
			"label":"Icon 5 URL",
			"description":""
		},
		{
			"name":"Icon5Target",
			"type":"dropdown",
			"default":"_self;_blank",
			"label":"Icon 5 Target",
			"description":"_self = Same Window / _blank = New Window"
		},
		{
			"name":"Icon6Image",
			"type":"icon",
			"default":"Student Program/19.png",
			"label":"Icon 6 Image",
			"description":""
		},
		{
			"name":"Icon6ShowText",
			"type":"boolean",
			"default":"true",
			"label":"Show Icon 6 Text",
			"description":"Text is still required for accessibility purposes"
		},
		{
			"name":"Icon6Text",
			"type":"text",
			"default":"Icon 6",
			"label":"Icon 6 Text",
			"description":""
		},
		{
			"name":"Icon6Link",
			"type":"text",
			"default":"#",
			"label":"Icon 6 URL",
			"description":""
		},
		{
			"name":"Icon6Target",
			"type":"dropdown",
			"default":"_self;_blank",
			"label":"Icon 6 Target",
			"description":"_self = Same Window / _blank = New Window"
		},
		{
			"name":"Icon7Image",
			"type":"icon",
			"default":"Student Program/19.png",
			"label":"Icon 7 Image",
			"description":""
		},
		{
			"name":"Icon7ShowText",
			"type":"boolean",
			"default":"true",
			"label":"Show Icon 7 Text",
			"description":"Text is still required for accessibility purposes"
		},
		{
			"name":"Icon7Text",
			"type":"text",
			"default":"Icon 7",
			"label":"Icon 7 Text",
			"description":""
		},
		{
			"name":"Icon7Link",
			"type":"text",
			"default":"#",
			"label":"Icon 7 URL",
			"description":""
		},
		{
			"name":"Icon7Target",
			"type":"dropdown",
			"default":"_self;_blank",
			"label":"Icon 7 Target",
			"description":"_self = Same Window / _blank = New Window"
		},
		{
			"name":"Icon8Image",
			"type":"icon",
			"default":"Student Program/19.png",
			"label":"Icon 8 Image",
			"description":""
		},
		{
			"name":"Icon8ShowText",
			"type":"boolean",
			"default":"true",
			"label":"Show Icon 8 Text",
			"description":"Text is still required for accessibility purposes"
		},
		{
			"name":"Icon8Text",
			"type":"text",
			"default":"Icon 8",
			"label":"Icon 8 Text",
			"description":""
		},
		{
			"name":"Icon8Link",
			"type":"text",
			"default":"#",
			"label":"Icon 8 URL",
			"description":""
		},
		{
			"name":"Icon8Target",
			"type":"dropdown",
			"default":"_self;_blank",
			"label":"Icon 8 Target",
			"description":"_self = Same Window / _blank = New Window"
		},
		{
			"name":"Icon9Image",
			"type":"icon",
			"default":"Student Program/19.png",
			"label":"Icon 9 Image",
			"description":""
		},
		{
			"name":"Icon9ShowText",
			"type":"boolean",
			"default":"true",
			"label":"Show Icon 9 Text",
			"description":"Text is still required for accessibility purposes"
		},
		{
			"name":"Icon9Text",
			"type":"text",
			"default":"Icon 9",
			"label":"Icon 9 Text",
			"description":""
		},
		{
			"name":"Icon9Link",
			"type":"text",
			"default":"#",
			"label":"Icon 9 URL",
			"description":""
		},
		{
			"name":"Icon9Target",
			"type":"dropdown",
			"default":"_self;_blank",
			"label":"Icon 9 Target",
			"description":"_self = Same Window / _blank = New Window"
		},
		{
			"name":"Icon10Image",
			"type":"icon",
			"default":"Student Program/19.png",
			"label":"Icon 10 Image",
			"description":""
		},
		{
			"name":"Icon10ShowText",
			"type":"boolean",
			"default":"true",
			"label":"Show Icon 10 Text",
			"description":"Text is still required for accessibility purposes"
		},
		{
			"name":"Icon10Text",
			"type":"text",
			"default":"Icon 10",
			"label":"Icon 10 Text",
			"description":""
		},
		{
			"name":"Icon10Link",
			"type":"text",
			"default":"#",
			"label":"Icon 10 URL",
			"description":""
		},
		{
			"name":"Icon10Target",
			"type":"dropdown",
			"default":"_self;_blank",
			"label":"Icon 10 Target",
			"description":"_self = Same Window / _blank = New Window"
		}
	],
	"Social Icons": [
		{
			"name":"showFacebook",
			"type":"boolean",
			"default":"true",
			"label":"Show Facebook Icon",
			"description":""
		},
		{
			"name":"FacebookUrl",
			"type":"text",
			"default":"#",
			"label":"Facebook Icon URL",
			"description":""
		},
		{
			"name":"FacebookTarget",
			"type":"dropdown",
			"default":"_blank;_self",
			"label":"Facebook Icon Target",
			"description":"Same Window / _blank = New Window"
		},
		{
			"name":"showTwitter",
			"type":"boolean",
			"default":"true",
			"label":"Show Twitter Icon",
			"description":""
		},
		{
			"name":"TwitterUrl",
			"type":"text",
			"default":"#",
			"label":"Twitter Icon URL",
			"description":""
		},
		{
			"name":"TwitterTarget",
			"type":"dropdown",
			"default":"_blank;_self",
			"label":"Twitter Icon Target",
			"description":"Same Window / _blank = New Window"
		},
		{
			"name":"showYouTube",
			"type":"boolean",
			"default":"true",
			"label":"Show YouTube Icon",
			"description":""
		},
		{
			"name":"YouTubeUrl",
			"type":"text",
			"default":"#",
			"label":"YouTube Icon URL",
			"description":""
		},
		{
			"name":"YouTubeTarget",
			"type":"dropdown",
			"default":"_blank;_self",
			"label":"YouTube Icon Target",
			"description":"Same Window / _blank = New Window"
		},
		{
			"name":"showInstagram",
			"type":"boolean",
			"default":"true",
			"label":"Show Instagram Icon",
			"description":""
		},
		{
			"name":"InstagramUrl",
			"type":"text",
			"default":"#",
			"label":"Instagram Icon URL",
			"description":""
		},
		{
			"name":"InstagramTarget",
			"type":"dropdown",
			"default":"_blank;_self",
			"label":"Instagram Icon Target",
			"description":"Same Window / _blank = New Window"
		},
		{
			"name":"showLinkedIn",
			"type":"boolean",
			"default":"true",
			"label":"Show LinkedIn Icon",
			"description":""
		},
		{
			"name":"LinkedInUrl",
			"type":"text",
			"default":"#",
			"label":"LinkedIn Icon URL",
			"description":""
		},
		{
			"name":"LinkedInTarget",
			"type":"dropdown",
			"default":"_blank;_self",
			"label":"LinkedIn Icon Target",
			"description":"Same Window / _blank = New Window"
		},
		{
			"name":"showVimeo",
			"type":"boolean",
			"default":"true",
			"label":"Show Vimeo Icon",
			"description":""
		},
		{
			"name":"VimeoUrl",
			"type":"text",
			"default":"#",
			"label":"Vimeo Icon URL",
			"description":""
		},
		{
			"name":"VimeoTarget",
			"type":"dropdown",
			"default":"_blank;_self",
			"label":"Vimeo Icon Target",
			"description":"Same Window / _blank = New Window"
		},
		{
			"name":"showFlickr",
			"type":"boolean",
			"default":"true",
			"label":"Show Flickr Icon",
			"description":""
		},
		{
			"name":"FlickrUrl",
			"type":"text",
			"default":"#",
			"label":"Flickr Icon URL",
			"description":""
		},
		{
			"name":"FlickrTarget",
			"type":"dropdown",
			"default":"_blank;_self",
			"label":"Flickr Icon Target",
			"description":"Same Window / _blank = New Window"
		},
		{
			"name":"showPinterest",
			"type":"boolean",
			"default":"true",
			"label":"Show Pinterest Icon",
			"description":""
		},
		{
			"name":"PinterestUrl",
			"type":"text",
			"default":"#",
			"label":"Pinterest Icon URL",
			"description":""
		},
		{
			"name":"PinterestTarget",
			"type":"dropdown",
			"default":"_blank;_self",
			"label":"Pinterest Icon Target",
			"description":"Same Window / _blank = New Window"
		},
		{
			"name":"showPeachjar",
			"type":"boolean",
			"default":"true",
			"label":"Show Peachjar Icon",
			"description":""
		},
		{
			"name":"PeachjarUrl",
			"type":"text",
			"default":"#",
			"label":"Peachjar Icon URL",
			"description":""
		},
		{
			"name":"PeachjarTarget",
			"type":"dropdown",
			"default":"_blank;_self",
			"label":"Peachjar Icon Target",
			"description":"Same Window / _blank = New Window"
		}
	]
}